id,name,model_id:id,group_id:id,perm_read,perm_write,perm_create,perm_unlink
access_maintenance_maintenance_admin,access_maintenance_maintenance_admin,model_maintenance_maintenance,maintenance.group_maintenance_admin,1,1,1,1
access_maintenance_reception_admin,access_maintenance_reception_admin,model_maintenance_reception,maintenance.group_maintenance_admin,1,1,1,1
access_maintenance_task_admin,access_maintenance_task_admin,model_maintenance_task,maintenance.group_maintenance_admin,1,1,1,1
access_maintenance_maintenance_admin,access_maintenance_maintenance_admin,model_maintenance_maintenance,base.group_user,1,0,0,0
access_maintenance_reception_admin,access_maintenance_reception_admin,model_maintenance_reception,base.group_user,1,0,0,0
access_maintenance_task_admin,access_maintenance_task_admin,model_maintenance_task,base.group_user,1,0,0,0
